[
    "Embarcado",
    "En Descanso",
    "Permiso con goce de sueldo",
    "Permiso sin goce de sueldo",
    "Licencia Común",
    "Licencia Laboral",
    "En Proceso de Despido",
    "En Proceso de Renuncia",
    "En Proceso de Contratación"
]
