[
    {
        "name": "TTE Reyes",
        "plate": "VALP. 3119",
        "call_identifier": "CB-8432",
        "capacity": 9,
        "engines": 1,
        "generators": 2,
        "supervisor": "11134011-0",
        "last_review": "12/22/2019"
    }, {
        "name": "M. Alondra",
        "plate": "VALP. 1364",
        "call_identifier": "CB-3284",
        "capacity": 7,
        "engines": 1,
        "generators": 1,
        "supervisor": "8683723-4",
        "last_review": "8/4/2020"
    }, {
        "name": "Garza",
        "plate": "PMO. 6229",
        "call_identifier": "CB-3137",
        "capacity": 7,
        "engines": 1,
        "generators": 1,
        "supervisor": "8683723-4",
        "last_review": "3/9/2020"
    }, {
        "name": "Gladys S",
        "plate": "COQ. 2214",
        "call_identifier": "CB-9291",
        "capacity": 7,
        "engines": 1,
        "generators": 1,
        "supervisor": "8683723-4",
        "last_review": "7/31/2020"
    }, {
        "name": "Don German",
        "plate": "PMO. 6845",
        "call_identifier": "CA-2859",
        "capacity": 10,
        "engines": 2,
        "generators": 1,
        "supervisor": "8683723-4",
        "last_review": "12/11/2019"
    }, {
        "name": "Marite",
        "plate": "COQ. 2407",
        "call_identifier": "CA-2735",
        "capacity": 7,
        "engines": 1,
        "generators": 1,
        "supervisor": "15291211-0",
        "last_review": "8/15/2020"
    }, {
        "name": "M Paz",
        "plate": "SON. 2530",
        "call_identifier": "CA-2548",
        "capacity": 8,
        "engines": 1,
        "generators": 1,
        "supervisor": "11134011-0",
        "last_review": "10/11/2019"
    }, {
        "name": "Milano",
        "plate": "CORONEL. 3234",
        "call_identifier": "CA-6778",
        "capacity": 9,
        "engines": 2,
        "generators": 2,
        "supervisor": "15291211-0",
        "last_review": "2/21/2020"
    }, {
        "name": "Porvenir 1",
        "plate": "CORONEL. 3308",
        "call_identifier": "CA-7675",
        "capacity": 10,
        "engines": 2,
        "generators": 2,
        "supervisor": "11134011-0",
        "last_review": "3/7/2020"
    }, {
        "name": "Constancia",
        "plate": "CHB. 2031",
        "call_identifier": "CA-4386",
        "capacity": 10,
        "engines": 2,
        "generators": 1,
        "supervisor": "15291211-0",
        "last_review": "8/16/2020"
    }
]
